Uma breve introdução ao Tidyverse – Lucas da Silva
…
# Ao visualizar o conteúdo do objeto "penguins" temos um tibble com dados,
# pronto para trabalhar
penguins
#> # A tibble: 344 × 9
#>   rowid species island    bill_length_mm bill_depth_mm flipper_length_mm
#>   <dbl> <chr>   <chr>              <dbl>         <dbl>             <dbl>
#> 1     1 Adelie  Torgersen           39.1          18.7               181
#> 2     2 Adelie  Torgersen           39.5          17.4               186
#> 3     3 Adelie  Torgersen           40.3          18                 195
#> 4     4 Adelie  Torgersen           NA            NA                  NA
#> 5     5 Adelie  Torgersen           36.7          19.3               193
#> 6     6 Adelie  Torgersen           39.3          20.6               190
#> # ℹ 338 more rows
#> # ℹ 3 more variables: body_mass_g <dbl>, sex <chr>, year <dbl>
…
select() e rename()

Conseguimos selecionar ou remover colunas com a função select(), usando o nome ou índice da coluna. Para deletar colunas apenas usamos o ponto de exclamação antes do nome ou índice da coluna. A função rename()renomeia colunas da mesma forma, usando o nome ou índice da coluna.

# Assinala o resultado da cadeia ao objeto "penguins_2" 
penguins_2 <- penguins |> 
    # Seleciona a coluna "rowid".
    # O ponto de exclamação indica a remoção da coluna "rowid"
    select(!rowid) |> 
    # Renomeia a coluna "species" como "penguin_species"
    rename(penguin_species = species)

# Visualizando o novo objeto
penguins_2
#> # A tibble: 344 × 8
#>   penguin_species island    bill_length_mm bill_depth_mm flipper_length_mm
#>   <chr>           <chr>              <dbl>         <dbl>             <dbl>
#> 1 Adelie          Torgersen           39.1          18.7               181
#> 2 Adelie          Torgersen           39.5          17.4               186
#> 3 Adelie          Torgersen           40.3          18                 195
#> 4 Adelie          Torgersen           NA            NA                  NA
#> 5 Adelie          Torgersen           36.7          19.3               193
#> 6 Adelie          Torgersen           39.3          20.6               190
#> # ℹ 338 more rows
#> # ℹ 3 more variables: body_mass_g <dbl>, sex <chr>, year <dbl>

filter()e sort()

Para filtrar dados, usamos o verbo filter() com operadores lógicos (>, ==, etc.) ou funções retornando em valores lógicos (str_detect(), is.na()). A função arrange() classifica os valores de menor para maior ou classifica múltiplas variáveis.

penguins_2 |>
    # Filtra linhas que o conteúdo da coluna "island" seja igual a "Dream"
    filter(island == "Dream") |> 
    # Classifica os dados pela coluna "year"
    arrange(year)
#> # A tibble: 124 × 8
#>   penguin_species island bill_length_mm bill_depth_mm flipper_length_mm
#>   <chr>           <chr>           <dbl>         <dbl>             <dbl>
#> 1 Adelie          Dream            39.5          16.7               178
#> 2 Adelie          Dream            37.2          18.1               178
#> 3 Adelie          Dream            39.5          17.8               188
#> 4 Adelie          Dream            40.9          18.9               184
#> 5 Adelie          Dream            36.4          17                 195
#> 6 Adelie          Dream            39.2          21.1               196
#> # ℹ 118 more rows
#> # ℹ 3 more variables: body_mass_g <dbl>, sex <chr>, year <dbl>
…
